OptiFit project update
…
.pull-left[
<img src="data:image/png;base64,#/Users/kelly/projects/schloss-lab/optiFit/exploratory/2020-11_Nov-Dec/figures/debug-fraction-mapped-open_fit-split-1.png" width="896" />
]

???
- Now that is really weird. For weight=simple, the fraction mapped is equal to the sample frac most of the time. So the fraction mapped is incorrect most of the time.
- Next I thought; maybe there's a bug in mothur where the open-ref output files have one less column than the closed-ref.
  - I brought this up to Sarah W before and she said she fixed it. Maybe I forgot to recompile mothur?
  - Bingo! I hadn't pulled the latest changes. So I recompiled and re-ran with one parameter set & one seed, and it worked! Problem solved! Well, not quite. When re-running with more than one seed, the problem persisted.
---

## is there a pattern?

```
## # A tibble: 24 x 7
##    dataset  seed is_correct fraction_mapped sample_frac ref_frac ref_weight
##    <chr>   <dbl> <lgl>                <dbl>       <dbl>    <dbl> <chr>     
##  1 soil       89 TRUE                     1         0.9      0.1 simple    
##  2 soil       94 TRUE                     1         0.8      0.2 simple    
##  3 soil       23 TRUE                     1         0.7      0.3 simple    
##  4 soil       62 TRUE                     1         0.6      0.4 simple    
##  5 soil       12 TRUE                     1         0.5      0.5 simple    
##  6 soil       16 TRUE                     1         0.4      0.6 simple    
##  7 soil       13 TRUE                     1         0.3      0.7 simple    
##  8 soil       95 TRUE                     1         0.2      0.8 simple    
##  9 soil       84 TRUE                     1         0.9      0.1 abundance 
## 10 soil       61 TRUE                     1         0.8      0.2 abundance 
## #  with 14 more rows
```
…
