…
### is there a pattern?

``` r
debug_dat <- optifit_split %>% 
  filter(method == 'open') %>% 
  mutate(is_correct = fraction_mapped == 1) %>% 
  select(dataset, seed, method, fraction_mapped, is_correct, 
         sample_frac, ref_frac, ref_weight)

debug_dat %>% filter(is_correct)
```

    ## # A tibble: 96 x 8
    ##    dataset  seed method fraction_mapped is_correct sample_frac ref_frac
    ##    <chr>   <dbl> <chr>            <dbl> <lgl>            <dbl>    <dbl>
    ##  1 human      35 open                 1 TRUE               0.9      0.1
    ##  2 human      51 open                 1 TRUE               0.8      0.2
    ##  3 human      92 open                 1 TRUE               0.7      0.3
    ##  4 human      92 open                 1 TRUE               0.6      0.4
    ##  5 human      92 open                 1 TRUE               0.5      0.5
    ##  6 human      92 open                 1 TRUE               0.4      0.6
    ##  7 human       3 open                 1 TRUE               0.3      0.7
    ##  8 human      54 open                 1 TRUE               0.2      0.8
    ##  9 human      79 open                 1 TRUE               0.9      0.1
    ## 10 human     100 open                 1 TRUE               0.8      0.2
    ## # … with 86 more rows, and 1 more variable: ref_weight <chr>
…
